┌───────────────┬────────────────────┬────────────────────┐
│ event CPU (s) │ ITkSiSpTrackFinder │ ITkAmbiguitySolver │
│        String │            Float64 │            Float64 │
├───────────────┼────────────────────┼────────────────────┤
│      Standard │            4.05789 │            4.77459 │
│       LargeD0 │            12.9919 │           0.640413 │
├───────────────┼────────────────────┼────────────────────┤
│      Slowdown │                3.2 │                0.1 │
└───────────────┴────────────────────┴────────────────────┘
