┌───────────────┬────────────────────┬────────────────────┐
│ event CPU (s) │ ITkSiSpTrackFinder │ ITkAmbiguitySolver │
│        String │            Float64 │            Float64 │
├───────────────┼────────────────────┼────────────────────┤
│      Standard │            4.05271 │            4.78742 │
│       LargeD0 │            8.15399 │           0.147534 │
├───────────────┼────────────────────┼────────────────────┤
│      Slowdown │                2.0 │                0.0 │
└───────────────┴────────────────────┴────────────────────┘
