┌───────────────┬────────────────────┬────────────────────┐
│ event CPU (s) │ ITkSiSpTrackFinder │ ITkAmbiguitySolver │
│        String │            Float64 │            Float64 │
├───────────────┼────────────────────┼────────────────────┤
│      Standard │            4.18218 │             4.7572 │
│       LargeD0 │            8.73349 │           0.494498 │
├───────────────┼────────────────────┼────────────────────┤
│      Slowdown │                2.1 │                0.1 │
└───────────────┴────────────────────┴────────────────────┘
