┌───────────────┬────────────────────┬────────────────────┐
│ event CPU (s) │ ITkSiSpTrackFinder │ ITkAmbiguitySolver │
│        String │            Float64 │            Float64 │
├───────────────┼────────────────────┼────────────────────┤
│      Standard │             4.0707 │            4.78965 │
│       LargeD0 │             8.1812 │           0.466366 │
├───────────────┼────────────────────┼────────────────────┤
│      Slowdown │                2.0 │                0.1 │
└───────────────┴────────────────────┴────────────────────┘
