┌───────────────┬────────────────────┬────────────────────┐
│ event CPU (s) │ ITkSiSpTrackFinder │ ITkAmbiguitySolver │
│        String │            Float64 │            Float64 │
├───────────────┼────────────────────┼────────────────────┤
│      Standard │            4.20028 │            4.80965 │
│       LargeD0 │           0.275561 │          0.0417061 │
├───────────────┼────────────────────┼────────────────────┤
│      Slowdown │                0.1 │                0.0 │
└───────────────┴────────────────────┴────────────────────┘
