┌───────────────┬────────────────────┬────────────────────┐
│ event CPU (s) │ ITkSiSpTrackFinder │ ITkAmbiguitySolver │
│        String │            Float64 │            Float64 │
├───────────────┼────────────────────┼────────────────────┤
│      Standard │            4.25349 │             4.7622 │
│       LargeD0 │            13.9032 │           0.179694 │
├───────────────┼────────────────────┼────────────────────┤
│      Slowdown │                3.3 │                0.0 │
└───────────────┴────────────────────┴────────────────────┘
